Extension
…
Extension

Maria Burzillo

4/14/2020

Main Analysis

# A tibble: 22 x 3
   variable             n_miss pct_miss
   <chr>                 <int>    <dbl>
 1 biggestsplit            109    53.7 
 2 biracial                103    50.7 
 3 whiteideology_fill2      16     7.88
 4 medincinterp              5     2.46
 5 diversityinterp           5     2.46
 6 pctasianpopinterp         5     2.46
 7 pctblkpopinterp           5     2.46
 8 pctlatinopopinterp        5     2.46
 9 pctrentersinterp          5     2.46
10 pctcollegegradinterp      5     2.46
#  with 12 more rows
…
      west
      0.039821997
      0.059315619
      0.671357685
      59.850508
      0.504575721

 % Table created by stargazer v.5.2.2 by Marek Hlavac, Harvard University. E-mail: hlavac at fas.harvard.edu % Date and time: Tue, Apr 14, 2020 - 20:53:51

miss_var_summary(fin_seg)

# A tibble: 182 x 3
   variable          n_miss pct_miss
   <chr>              <int>    <dbl>
 1 citypop           324178      100
 2 E_city_multi      324178      100
 3 H_citytract_multi 324178      100
 4 E_city_NHW        324178      100
 5 H_citytract_NHW   324178      100
 6 isolationwht      324178      100
 7 ucounty           324178      100
 8 msapma            324178      100
 9 uplace98          324178      100
10 pctnhwht_city     324178      100
#  with 172 more rows
…
